date	campaign_name	country	spend
2021-03-01	Campaign_name1	AE	0.01
2021-03-01	Campaign_name1	AE	0.160034
2021-03-01	Campaign_name1	AG	0.020004
2021-03-01	Campaign_name1	AS	0.020004
2021-03-01	Campaign_name1	AT	0.780165
2021-03-01	Campaign_name1	AU	0.08
2021-03-01	Campaign_name1	AU	3.990842
2021-03-01	Campaign_name1	AW	0.060013
2021-03-01	Campaign_name1	BA	0.03
2021-03-01	Campaign_name1	BA	0.14003
2021-03-01	Campaign_name1	BB	0.01
2021-03-01	Campaign_name1	BB	0.020004
2021-03-01	Campaign_name1	BE	0.07
2021-03-01	Campaign_name1	BE	3.510741
2021-03-01	Campaign_name1	BG	0.06
2021-03-01	Campaign_name1	BG	0.01
2021-03-01	Campaign_name1	BG	0.670141
2021-03-01	Campaign_name1	BL	0.01
2021-03-01	Campaign_name1	BM	0.020004
2021-03-01	Campaign_name1	BO	0.08
2021-03-01	Campaign_name1	BO	0.950201
2021-03-01	Campaign_name1	BS	0.250053
2021-03-01	Campaign_name1	BY	0.01
2021-03-01	Campaign_name1	BY	0.020004
2021-03-01	Campaign_name1	BZ	0.020004
2021-03-01	Campaign_name1	CA	0.17
2021-03-01	Campaign_name1	CA	3.660773
2021-03-01	Campaign_name1	CH	1.260266
2021-03-01	Campaign_name1	CK	0.010002
2021-03-01	Campaign_name1	CL	0.62
2021-03-01	Campaign_name1	CL	0.06
2021-03-01	Campaign_name1	CL	6.991476
2021-03-01	Campaign_name1	CO	0.14
2021-03-01	Campaign_name1	CO	0.01
2021-03-01	Campaign_name1	CO	2.340494
2021-03-01	Campaign_name1	CR	0.08
2021-03-01	Campaign_name1	CR	1.600338
2021-03-01	Campaign_name1	CW	0.01
2021-03-01	Campaign_name1	CW	0.01
2021-03-01	Campaign_name1	CZ	0.2
2021-03-01	Campaign_name1	CZ	0.01
2021-03-01	Campaign_name1	CZ	5.001056
2021-03-01	Campaign_name1	DE	5.711206
2021-03-01	Campaign_name1	DK	0.01
2021-03-01	Campaign_name1	DK	1.550327
2021-03-01	Campaign_name1	DO	0.01
2021-03-01	Campaign_name1	DO	0.340072
2021-03-01	Campaign_name1	EC	0.15
2021-03-01	Campaign_name1	EC	0.01
2021-03-01	Campaign_name1	EC	1.440304
2021-03-01	Campaign_name1	EE	0.01
2021-03-01	Campaign_name1	EE	0.170036
2021-03-01	Campaign_name1	ES	0.11
2021-03-01	Campaign_name1	ES	0.03
2021-03-01	Campaign_name1	ES	1.030217
2021-03-01	Campaign_name1	FI	0.01
2021-03-01	Campaign_name1	FI	0.76016
2021-03-01	Campaign_name1	FJ	0.010002
2021-03-01	Campaign_name1	FK	0.010002
2021-03-01	Campaign_name1	FM	0.010002
2021-03-01	Campaign_name1	FO	0.020004
2021-03-01	Campaign_name1	FR	0.17
2021-03-01	Campaign_name1	FR	11.822496
2021-03-01	Campaign_name1	GB	0.04
2021-03-01	Campaign_name1	GB	7.081495
2021-03-01	Campaign_name1	GF	0.020004
2021-03-01	Campaign_name1	GG	0.080017
2021-03-01	Campaign_name1	GI	0.050011
2021-03-01	Campaign_name1	GL	0.01
2021-03-01	Campaign_name1	GL	0.110023
2021-03-01	Campaign_name1	GR	0.01
2021-03-01	Campaign_name1	GR	0.01
2021-03-01	Campaign_name1	GR	0.850179
2021-03-01	Campaign_name1	GT	0.05
2021-03-01	Campaign_name1	GT	0.01
2021-03-01	Campaign_name1	GT	0.790167
2021-03-01	Campaign_name1	GU	0.01
2021-03-01	Campaign_name1	GU	0.310065
2021-03-01	Campaign_name1	GY	0.030006
2021-03-01	Campaign_name1	HK	0.540114
2021-03-01	Campaign_name1	HN	0.02
2021-03-01	Campaign_name1	HN	0.01
2021-03-01	Campaign_name1	HN	0.300063
2021-03-01	Campaign_name1	HR	0.03
2021-03-01	Campaign_name1	HR	0.02
2021-03-01	Campaign_name1	HR	0.770163
2021-03-01	Campaign_name1	HU	0.16
2021-03-01	Campaign_name1	HU	3.390716
2021-03-01	Campaign_name1	IE	0.02
2021-03-01	Campaign_name1	IE	0.910192
2021-03-01	Campaign_name1	IL	0.31
2021-03-01	Campaign_name1	IL	0.01
2021-03-01	Campaign_name1	IL	1.780376
2021-03-01	Campaign_name1	IM	0.04
2021-03-01	Campaign_name1	IM	0.19004
2021-03-01	Campaign_name1	IS	0.210044
2021-03-01	Campaign_name1	IT	0.08
2021-03-01	Campaign_name1	IT	3.620764
2021-03-01	Campaign_name1	JE	0.19004
2021-03-01	Campaign_name1	JM	0.03
2021-03-01	Campaign_name1	JP	0.640135
2021-03-01	Campaign_name1	KN	0.010002
2021-03-01	Campaign_name1	KR	4.040853
2021-03-01	Campaign_name1	LI	0.020004
2021-03-01	Campaign_name1	LT	0.1
2021-03-01	Campaign_name1	LT	0.04
2021-03-01	Campaign_name1	LT	0.770163
2021-03-01	Campaign_name1	LU	0.160034
2021-03-01	Campaign_name1	LV	0.180038
2021-03-01	Campaign_name1	MD	0.05
2021-03-01	Campaign_name1	MD	0.030006
2021-03-01	Campaign_name1	ME	0.02
2021-03-01	Campaign_name1	ME	0.020004
2021-03-01	Campaign_name1	MH	0.010002
2021-03-01	Campaign_name1	MK	0.01
2021-03-01	Campaign_name1	MK	0.030006
2021-03-01	Campaign_name1	MO	0.020004
2021-03-01	Campaign_name1	MP	0.050011
2021-03-01	Campaign_name1	MQ	0.01
2021-03-01	Campaign_name1	MT	0.01
2021-03-01	Campaign_name1	MT	0.390082
2021-03-01	Campaign_name1	MY	0.08
2021-03-01	Campaign_name1	MY	0.820173
2021-03-01	Campaign_name1	NC	0.02
2021-03-01	Campaign_name1	NC	0.040008
2021-03-01	Campaign_name1	NI	0.05
2021-03-01	Campaign_name1	NI	0.01
2021-03-01	Campaign_name1	NI	0.360076
2021-03-01	Campaign_name1	NL	0.17
2021-03-01	Campaign_name1	NL	2.200465
2021-03-01	Campaign_name1	NO	1.140241
2021-03-01	Campaign_name1	NR	0.010002
2021-03-01	Campaign_name1	NZ	0.04
2021-03-01	Campaign_name1	NZ	0.790167
2021-03-01	Campaign_name1	PA	0.01
2021-03-01	Campaign_name1	PA	0.060013
2021-03-01	Campaign_name1	PE	0.06
2021-03-01	Campaign_name1	PE	0.01
2021-03-01	Campaign_name1	PE	1.170247
2021-03-01	Campaign_name1	PF	0.070015
2021-03-01	Campaign_name1	PG	0.010002
2021-03-01	Campaign_name1	PH	0.23
2021-03-01	Campaign_name1	PH	3.610762
2021-03-01	Campaign_name1	PL	0.54
2021-03-01	Campaign_name1	PL	0.07
2021-03-01	Campaign_name1	PL	7.211522
2021-03-01	Campaign_name1	PM	0.010002
2021-03-01	Campaign_name1	PR	0.02
2021-03-01	Campaign_name1	PR	0.01
2021-03-01	Campaign_name1	PR	1.180249
2021-03-01	Campaign_name1	PT	0.08
2021-03-01	Campaign_name1	PT	0.01
2021-03-01	Campaign_name1	PT	0.790167
2021-03-01	Campaign_name1	PY	0.01
2021-03-01	Campaign_name1	PY	0.19004
2021-03-01	Campaign_name1	RO	0.18
2021-03-01	Campaign_name1	RO	1.640346
2021-03-01	Campaign_name1	RS	0.11
2021-03-01	Campaign_name1	RS	0.280059
2021-03-01	Campaign_name1	RU	0.12
2021-03-01	Campaign_name1	RU	0.020004
2021-03-01	Campaign_name1	SE	0.02
2021-03-01	Campaign_name1	SE	1.310277
2021-03-01	Campaign_name1	SG	0.590125
2021-03-01	Campaign_name1	SI	0.220046
2021-03-01	Campaign_name1	SK	0.08
2021-03-01	Campaign_name1	SK	1.150243
2021-03-01	Campaign_name1	SM	0.01
2021-03-01	Campaign_name1	SR	0.020004
2021-03-01	Campaign_name1	SV	0.1
2021-03-01	Campaign_name1	SV	1.430302
2021-03-01	Campaign_name1	SX	0.030006
2021-03-01	Campaign_name1	TO	0.010002
2021-03-01	Campaign_name1	TT	0.03
2021-03-01	Campaign_name1	TT	0.130027
2021-03-01	Campaign_name1	TW	0.02
2021-03-01	Campaign_name1	TW	1.770374
2021-03-01	Campaign_name1	UA	0.2
2021-03-01	Campaign_name1	UA	0.38008
2021-03-01	Campaign_name1	US	0.67
2021-03-01	Campaign_name1	US	0.47
2021-03-01	Campaign_name1	US	31.336615
2021-03-01	Campaign_name1	VE	0.02
2021-03-01	Campaign_name1	VE	0.130027
2021-03-01	Campaign_name1	VI	0.030006
2021-03-01	Campaign_name1	XK	0.01
2021-03-01	Campaign_name2	AD	0.01
2021-03-01	Campaign_name2	AE	0.34
2021-03-01	Campaign_name2	AE	0.08
2021-03-01	Campaign_name2	AE	0.03
2021-03-01	Campaign_name2	AT	0.63
2021-03-01	Campaign_name2	AT	0.07
2021-03-01	Campaign_name2	AT	0.12
2021-03-01	Campaign_name2	AU	2.47
2021-03-01	Campaign_name2	AU	0.41
2021-03-01	Campaign_name2	AU	0.52
2021-03-01	Campaign_name2	BB	0.01
2021-03-01	Campaign_name2	BE	0.51
2021-03-01	Campaign_name2	BE	0.03
2021-03-01	Campaign_name2	BE	0.12
2021-03-01	Campaign_name2	BG	0.15
2021-03-01	Campaign_name2	BG	0.02
2021-03-01	Campaign_name2	BG	0.07
2021-03-01	Campaign_name2	BO	0.1
2021-03-01	Campaign_name2	BO	0.01
2021-03-01	Campaign_name2	BS	0.04
2021-03-01	Campaign_name2	BS	0.03
2021-03-01	Campaign_name2	BY	0.01
2021-03-01	Campaign_name2	CA	3.67
2021-03-01	Campaign_name2	CA	0.7
2021-03-01	Campaign_name2	CA	0.77
2021-03-01	Campaign_name2	CH	1.23
2021-03-01	Campaign_name2	CH	0.27
2021-03-01	Campaign_name2	CH	0.1
2021-03-01	Campaign_name2	CL	0.16
2021-03-01	Campaign_name2	CL	0.05
2021-03-01	Campaign_name2	CL	0.05
2021-03-01	Campaign_name2	CO	0.08
2021-03-01	Campaign_name2	CO	0.02
2021-03-01	Campaign_name2	CO	0.06
2021-03-01	Campaign_name2	CR	0.03
2021-03-01	Campaign_name2	CR	0.03
2021-03-01	Campaign_name2	CR	0.04
2021-03-01	Campaign_name2	CZ	0.24
2021-03-01	Campaign_name2	CZ	0.03
2021-03-01	Campaign_name2	CZ	0.11
2021-03-01	Campaign_name2	DE	2.18
2021-03-01	Campaign_name2	DE	0.13
2021-03-01	Campaign_name2	DE	1.51
2021-03-01	Campaign_name2	DK	1.43
2021-03-01	Campaign_name2	DK	0.35
2021-03-01	Campaign_name2	DK	0.47
2021-03-01	Campaign_name2	DO	0.04
2021-03-01	Campaign_name2	DO	0.05
2021-03-01	Campaign_name2	DO	0.04
2021-03-01	Campaign_name2	EC	0.05
2021-03-01	Campaign_name2	EC	0.02
2021-03-01	Campaign_name2	EC	0.03
2021-03-01	Campaign_name2	EE	0.09
2021-03-01	Campaign_name2	EE	0.05
2021-03-01	Campaign_name2	EE	0.02
2021-03-01	Campaign_name2	ES	0.32
2021-03-01	Campaign_name2	ES	0.07
2021-03-01	Campaign_name2	ES	0.07
2021-03-01	Campaign_name2	FI	0.08
2021-03-01	Campaign_name2	FI	0.01
2021-03-01	Campaign_name2	FI	0.01
2021-03-01	Campaign_name2	FO	0.05
2021-03-01	Campaign_name2	FR	4.1
2021-03-01	Campaign_name2	FR	0.76
2021-03-01	Campaign_name2	FR	0.61
2021-03-01	Campaign_name2	GB	8.6
2021-03-01	Campaign_name2	GB	2.43
2021-03-01	Campaign_name2	GB	1.75
2021-03-01	Campaign_name2	GG	0.06
2021-03-01	Campaign_name2	GG	0.03
2021-03-01	Campaign_name2	GL	0.05
2021-03-01	Campaign_name2	GL	0.03
2021-03-01	Campaign_name2	GL	0.02
2021-03-01	Campaign_name2	GP	0.01
2021-03-01	Campaign_name2	GR	0.12
2021-03-01	Campaign_name2	GR	0.05
2021-03-01	Campaign_name2	GR	0.21
2021-03-01	Campaign_name2	GT	0.02
2021-03-01	Campaign_name2	GT	0.02
2021-03-01	Campaign_name2	GT	0.01
2021-03-01	Campaign_name2	GU	0.21
2021-03-01	Campaign_name2	GU	0.04
2021-03-01	Campaign_name2	GU	0.02
2021-03-01	Campaign_name2	HK	0.26
2021-03-01	Campaign_name2	HK	0.02
2021-03-01	Campaign_name2	HK	0.02
2021-03-01	Campaign_name2	HN	0.06
2021-03-01	Campaign_name2	HN	0.03
2021-03-01	Campaign_name2	HU	0.25
2021-03-01	Campaign_name2	HU	0.06
2021-03-01	Campaign_name2	HU	0.1
2021-03-01	Campaign_name2	IE	0.37
2021-03-01	Campaign_name2	IE	0.27
2021-03-01	Campaign_name2	IE	0.03
2021-03-01	Campaign_name2	IL	0.77
2021-03-01	Campaign_name2	IL	0.09
2021-03-01	Campaign_name2	IL	0.28
2021-03-01	Campaign_name2	IM	0.22
2021-03-01	Campaign_name2	IM	0.06
2021-03-01	Campaign_name2	IS	0.01
2021-03-01	Campaign_name2	IS	0.01
2021-03-01	Campaign_name2	IS	0.03
2021-03-01	Campaign_name2	IT	0.65
2021-03-01	Campaign_name2	IT	0.26
2021-03-01	Campaign_name2	IT	0.09
2021-03-01	Campaign_name2	JE	0.21
2021-03-01	Campaign_name2	JP	3.51
2021-03-01	Campaign_name2	JP	0.43
2021-03-01	Campaign_name2	JP	0.55
2021-03-01	Campaign_name2	KR	0.6
2021-03-01	Campaign_name2	KR	0.14
2021-03-01	Campaign_name2	KR	0.3
2021-03-01	Campaign_name2	LT	0.07
2021-03-01	Campaign_name2	LT	0.02
2021-03-01	Campaign_name2	LT	0.01
2021-03-01	Campaign_name2	LU	0.1
2021-03-01	Campaign_name2	LU	0.01
2021-03-01	Campaign_name2	LV	0.06
2021-03-01	Campaign_name2	LV	0.01
2021-03-01	Campaign_name2	MC	0.03
2021-03-01	Campaign_name2	MC	0.01
2021-03-01	Campaign_name2	MK	0.01
2021-03-01	Campaign_name2	MP	0.01
2021-03-01	Campaign_name2	MP	0.01
2021-03-01	Campaign_name2	MQ	0.02
2021-03-01	Campaign_name2	MQ	0.01
2021-03-01	Campaign_name2	MT	0.08
2021-03-01	Campaign_name2	MT	0.01
2021-03-01	Campaign_name2	MY	0.03
2021-03-01	Campaign_name2	MY	0.04
2021-03-01	Campaign_name2	MY	0.01
2021-03-01	Campaign_name2	NC	0.02
2021-03-01	Campaign_name2	NI	0.01
2021-03-01	Campaign_name2	NI	0.01
2021-03-01	Campaign_name2	NI	0.01
2021-03-01	Campaign_name2	NL	0.33
2021-03-01	Campaign_name2	NL	0.06
2021-03-01	Campaign_name2	NL	0.1
2021-03-01	Campaign_name2	NO	1.83
2021-03-01	Campaign_name2	NO	0.66
2021-03-01	Campaign_name2	NO	1.11
2021-03-01	Campaign_name2	NZ	0.4
2021-03-01	Campaign_name2	NZ	0.02
2021-03-01	Campaign_name2	PA	0.03
2021-03-01	Campaign_name2	PA	0.01
2021-03-01	Campaign_name2	PE	0.08
2021-03-01	Campaign_name2	PE	0.02
2021-03-01	Campaign_name2	PE	0.04
2021-03-01	Campaign_name2	PH	0.13
2021-03-01	Campaign_name2	PH	0.06
2021-03-01	Campaign_name2	PH	0.01
2021-03-01	Campaign_name2	PL	0.29
2021-03-01	Campaign_name2	PL	0.03
2021-03-01	Campaign_name2	PL	0.03
2021-03-01	Campaign_name2	PR	0.3
2021-03-01	Campaign_name2	PR	0.18
2021-03-01	Campaign_name2	PT	0.14
2021-03-01	Campaign_name2	PT	0.04
2021-03-01	Campaign_name2	PT	0.06
2021-03-01	Campaign_name2	RO	0.09
2021-03-01	Campaign_name2	RO	0.01
2021-03-01	Campaign_name2	RO	0.01
2021-03-01	Campaign_name2	RS	0.05
2021-03-01	Campaign_name2	RS	0.02
2021-03-01	Campaign_name2	RS	0.03
2021-03-01	Campaign_name2	RU	0.38
2021-03-01	Campaign_name2	RU	0.13
2021-03-01	Campaign_name2	RU	0.09
2021-03-01	Campaign_name2	SE	1.02
2021-03-01	Campaign_name2	SE	0.03
2021-03-01	Campaign_name2	SE	0.3
2021-03-01	Campaign_name2	SG	0.3
2021-03-01	Campaign_name2	SG	0.07
2021-03-01	Campaign_name2	SG	0.03
2021-03-01	Campaign_name2	SI	0.01
2021-03-01	Campaign_name2	SK	0.26
2021-03-01	Campaign_name2	SK	0.02
2021-03-01	Campaign_name2	SK	0.04
2021-03-01	Campaign_name2	SV	0.06
2021-03-01	Campaign_name2	SV	0.03
2021-03-01	Campaign_name2	TC	0.01
2021-03-01	Campaign_name2	TC	0.01
2021-03-01	Campaign_name2	TT	0.01
2021-03-01	Campaign_name2	TT	0.01
2021-03-01	Campaign_name2	TW	0.21
2021-03-01	Campaign_name2	TW	0.19
2021-03-01	Campaign_name2	UA	0.22
2021-03-01	Campaign_name2	UA	0.04
2021-03-01	Campaign_name2	UA	0.08
2021-03-01	Campaign_name2	US	45.68
2021-03-01	Campaign_name2	US	18.81
2021-03-01	Campaign_name2	US	20.24
2021-03-01	Campaign_name2	VE	0.03
2021-03-01	Campaign_name2	VI	0.05
2021-03-01	Campaign_name2	XK	0.04
2021-03-02	Campaign_name1	AE	0.29002
2021-03-02	Campaign_name1	AS	0.01
2021-03-02	Campaign_name1	AS	0.030002
2021-03-02	Campaign_name1	AT	0.01
2021-03-02	Campaign_name1	AT	1.070075
2021-03-02	Campaign_name1	AU	2.640185
2021-03-02	Campaign_name1	AW	0.01
2021-03-02	Campaign_name1	AW	0.020001
2021-03-02	Campaign_name1	BA	0.150011
2021-03-02	Campaign_name1	BB	0.01
2021-03-02	Campaign_name1	BE	0.02
2021-03-02	Campaign_name1	BE	2.29016
2021-03-02	Campaign_name1	BG	0.06
2021-03-02	Campaign_name1	BG	0.01
2021-03-02	Campaign_name1	BG	0.700049
2021-03-02	Campaign_name1	BL	0.040003
2021-03-02	Campaign_name1	BM	0.020001
2021-03-02	Campaign_name1	BO	0.03
2021-03-02	Campaign_name1	BO	1.020071
2021-03-02	Campaign_name1	BQ	0.010001
2021-03-02	Campaign_name1	BS	0.090006
2021-03-02	Campaign_name1	BY	0.02
2021-03-02	Campaign_name1	BY	0.01
2021-03-02	Campaign_name1	BZ	0.020001
2021-03-02	Campaign_name1	CA	0.06
2021-03-02	Campaign_name1	CA	3.560249
2021-03-02	Campaign_name1	CH	1.080076
2021-03-02	Campaign_name1	CL	0.74
2021-03-02	Campaign_name1	CL	0.06
2021-03-02	Campaign_name1	CL	7.730541
2021-03-02	Campaign_name1	CO	0.13
2021-03-02	Campaign_name1	CO	0.01
2021-03-02	Campaign_name1	CO	3.110218
2021-03-02	Campaign_name1	CR	0.07
2021-03-02	Campaign_name1	CR	0.03
2021-03-02	Campaign_name1	CR	1.510106
2021-03-02	Campaign_name1	CW	0.020001
2021-03-02	Campaign_name1	CZ	0.12
2021-03-02	Campaign_name1	CZ	0.01
2021-03-02	Campaign_name1	CZ	3.800266
2021-03-02	Campaign_name1	DE	4.320302
2021-03-02	Campaign_name1	DK	0.02
2021-03-02	Campaign_name1	DK	1.540108
2021-03-02	Campaign_name1	DO	0.01
2021-03-02	Campaign_name1	DO	0.350025
2021-03-02	Campaign_name1	EC	0.12
2021-03-02	Campaign_name1	EC	0.01
2021-03-02	Campaign_name1	EC	1.580111
2021-03-02	Campaign_name1	EE	0.01
2021-03-02	Campaign_name1	EE	0.260018
2021-03-02	Campaign_name1	ES	0.01
2021-03-02	Campaign_name1	ES	1.010071
2021-03-02	Campaign_name1	FI	0.01
2021-03-02	Campaign_name1	FI	0.01
2021-03-02	Campaign_name1	FI	0.810057
2021-03-02	Campaign_name1	FJ	0.02
2021-03-02	Campaign_name1	FJ	0.020001
2021-03-02	Campaign_name1	FO	0.010001
2021-03-02	Campaign_name1	FR	0.04
2021-03-02	Campaign_name1	FR	7.630534
2021-03-02	Campaign_name1	GB	0.03
2021-03-02	Campaign_name1	GB	5.890412
2021-03-02	Campaign_name1	GF	0.010001
2021-03-02	Campaign_name1	GG	0.070005
2021-03-02	Campaign_name1	GL	0.01
2021-03-02	Campaign_name1	GL	0.080006
2021-03-02	Campaign_name1	GP	0.020001
2021-03-02	Campaign_name1	GR	0.02
2021-03-02	Campaign_name1	GR	0.580041
2021-03-02	Campaign_name1	GT	0.03
2021-03-02	Campaign_name1	GT	0.01
2021-03-02	Campaign_name1	GT	1.100077
2021-03-02	Campaign_name1	GU	0.02
2021-03-02	Campaign_name1	GU	0.28002
2021-03-02	Campaign_name1	GY	0.050004
2021-03-02	Campaign_name1	HK	0.57004
2021-03-02	Campaign_name1	HN	0.05
2021-03-02	Campaign_name1	HN	0.01
2021-03-02	Campaign_name1	HN	0.540038
2021-03-02	Campaign_name1	HR	0.770054
2021-03-02	Campaign_name1	HU	0.1
2021-03-02	Campaign_name1	HU	0.01
2021-03-02	Campaign_name1	HU	3.180223
2021-03-02	Campaign_name1	IE	0.820057
2021-03-02	Campaign_name1	IL	0.01
2021-03-02	Campaign_name1	IL	0.02
2021-03-02	Campaign_name1	IL	1.010071
2021-03-02	Campaign_name1	IM	0.550039
2021-03-02	Campaign_name1	IS	0.14001
2021-03-02	Campaign_name1	IT	0.02
2021-03-02	Campaign_name1	IT	3.650256
2021-03-02	Campaign_name1	JE	0.070005
2021-03-02	Campaign_name1	JM	0.01
2021-03-02	Campaign_name1	JP	0.750053
2021-03-02	Campaign_name1	KR	0.15
2021-03-02	Campaign_name1	KR	4.200294
2021-03-02	Campaign_name1	LC	0.010001
2021-03-02	Campaign_name1	LI	0.020001
2021-03-02	Campaign_name1	LT	0.05
2021-03-02	Campaign_name1	LT	0.02
2021-03-02	Campaign_name1	LT	0.670047
2021-03-02	Campaign_name1	LU	0.090006
2021-03-02	Campaign_name1	LV	0.02
2021-03-02	Campaign_name1	LV	0.160011
2021-03-02	Campaign_name1	MD	0.04
2021-03-02	Campaign_name1	MD	0.01
2021-03-02	Campaign_name1	MD	0.060004
2021-03-02	Campaign_name1	ME	0.010001
2021-03-02	Campaign_name1	MH	0.010001
2021-03-02	Campaign_name1	MK	0.02
2021-03-02	Campaign_name1	MK	0.040003
2021-03-02	Campaign_name1	MO	0.030002
2021-03-02	Campaign_name1	MP	0.020001
2021-03-02	Campaign_name1	MT	0.820057
2021-03-02	Campaign_name1	MY	0.02
2021-03-02	Campaign_name1	MY	1.960137
2021-03-02	Campaign_name1	NC	0.060004
2021-03-02	Campaign_name1	NI	0.01
2021-03-02	Campaign_name1	NI	0.01
2021-03-02	Campaign_name1	NI	0.620043
2021-03-02	Campaign_name1	NL	0.02
2021-03-02	Campaign_name1	NL	2.28016
2021-03-02	Campaign_name1	NO	0.17
2021-03-02	Campaign_name1	NO	1.020071
2021-03-02	Campaign_name1	NZ	0.02
2021-03-02	Campaign_name1	NZ	0.990069
2021-03-02	Campaign_name1	PA	0.04
2021-03-02	Campaign_name1	PA	0.110008
2021-03-02	Campaign_name1	PE	0.05
2021-03-02	Campaign_name1	PE	0.02
2021-03-02	Campaign_name1	PE	1.470103
2021-03-02	Campaign_name1	PF	0.030002
2021-03-02	Campaign_name1	PH	0.05
2021-03-02	Campaign_name1	PH	5.820407
2021-03-02	Campaign_name1	PL	0.23
2021-03-02	Campaign_name1	PL	0.04
2021-03-02	Campaign_name1	PL	8.580601
2021-03-02	Campaign_name1	PM	0.010001
2021-03-02	Campaign_name1	PR	0.02
2021-03-02	Campaign_name1	PR	0.870061
2021-03-02	Campaign_name1	PT	0.02
2021-03-02	Campaign_name1	PT	0.800056
2021-03-02	Campaign_name1	PW	0.010001
2021-03-02	Campaign_name1	PY	0.01
2021-03-02	Campaign_name1	PY	0.220015
2021-03-02	Campaign_name1	RO	0.16
2021-03-02	Campaign_name1	RO	1.370096
2021-03-02	Campaign_name1	RS	0.04
2021-03-02	Campaign_name1	RS	0.350025
2021-03-02	Campaign_name1	RU	0.09
2021-03-02	Campaign_name1	RU	0.150011
2021-03-02	Campaign_name1	SE	1.440101
2021-03-02	Campaign_name1	SG	0.560039
2021-03-02	Campaign_name1	SI	0.260018
2021-03-02	Campaign_name1	SK	0.06
2021-03-02	Campaign_name1	SK	0.690048
2021-03-02	Campaign_name1	SM	0.010001
2021-03-02	Campaign_name1	SR	0.040003
2021-03-02	Campaign_name1	SV	0.08
2021-03-02	Campaign_name1	SV	0.02
2021-03-02	Campaign_name1	SV	0.700049
2021-03-02	Campaign_name1	TT	0.03
2021-03-02	Campaign_name1	TT	0.050004
2021-03-02	Campaign_name1	TW	0.01
2021-03-02	Campaign_name1	TW	2.920204
2021-03-02	Campaign_name1	UA	0.09
2021-03-02	Campaign_name1	UA	0.02
2021-03-02	Campaign_name1	UA	0.450032
2021-03-02	Campaign_name1	US	0.11
2021-03-02	Campaign_name1	US	0.08
2021-03-02	Campaign_name1	US	35.86251
2021-03-02	Campaign_name1	VE	0.01
2021-03-02	Campaign_name1	VE	0.130009
2021-03-02	Campaign_name2	AE	0.28
2021-03-02	Campaign_name2	AE	0.170054
2021-03-02	Campaign_name2	AE	0.21
2021-03-02	Campaign_name2	AG	0.01
2021-03-02	Campaign_name2	AS	0.020006
2021-03-02	Campaign_name2	AT	0.23
2021-03-02	Campaign_name2	AT	0.100032
2021-03-02	Campaign_name2	AT	0.17
2021-03-02	Campaign_name2	AU	1.37
2021-03-02	Campaign_name2	AU	0.930293
2021-03-02	Campaign_name2	AU	3.39
2021-03-02	Campaign_name2	BA	0.01
2021-03-02	Campaign_name2	BA	0.01
2021-03-02	Campaign_name2	BE	0.24
2021-03-02	Campaign_name2	BE	0.16005
2021-03-02	Campaign_name2	BE	0.15
2021-03-02	Campaign_name2	BG	0.02
2021-03-02	Campaign_name2	BG	0.010003
2021-03-02	Campaign_name2	BG	0.02
2021-03-02	Campaign_name2	BM	0.010003
2021-03-02	Campaign_name2	BM	0.04
2021-03-02	Campaign_name2	BO	0.01
2021-03-02	Campaign_name2	BO	0.030009
2021-03-02	Campaign_name2	BS	0.01
2021-03-02	Campaign_name2	BS	0.010003
2021-03-02	Campaign_name2	BY	0.01
2021-03-02	Campaign_name2	BY	0.010003
2021-03-02	Campaign_name2	BY	0.02
2021-03-02	Campaign_name2	CA	2.73
2021-03-02	Campaign_name2	CA	0.960303
2021-03-02	Campaign_name2	CA	1.82
2021-03-02	Campaign_name2	CH	0.8
2021-03-02	Campaign_name2	CH	0.38012
2021-03-02	Campaign_name2	CH	0.97
2021-03-02	Campaign_name2	CL	0.15
2021-03-02	Campaign_name2	CL	0.140044
2021-03-02	Campaign_name2	CL	0.17
2021-03-02	Campaign_name2	CO	0.01
2021-03-02	Campaign_name2	CO	0.050016
2021-03-02	Campaign_name2	CO	0.06
2021-03-02	Campaign_name2	CR	0.06
2021-03-02	Campaign_name2	CR	0.010003
2021-03-02	Campaign_name2	CR	0.02
2021-03-02	Campaign_name2	CZ	0.52
2021-03-02	Campaign_name2	CZ	0.080025
2021-03-02	Campaign_name2	CZ	0.2
2021-03-02	Campaign_name2	DE	0.38
2021-03-02	Campaign_name2	DE	0.410129
2021-03-02	Campaign_name2	DE	0.66
2021-03-02	Campaign_name2	DK	0.58
2021-03-02	Campaign_name2	DK	0.110035
2021-03-02	Campaign_name2	DK	0.4
2021-03-02	Campaign_name2	DO	0.02
2021-03-02	Campaign_name2	DO	0.060019
2021-03-02	Campaign_name2	DO	0.01
2021-03-02	Campaign_name2	EC	0.07
2021-03-02	Campaign_name2	EC	0.060019
2021-03-02	Campaign_name2	EC	0.03
2021-03-02	Campaign_name2	EE	0.08
2021-03-02	Campaign_name2	EE	0.01
2021-03-02	Campaign_name2	ES	0.24
2021-03-02	Campaign_name2	ES	0.090028
2021-03-02	Campaign_name2	ES	0.14
2021-03-02	Campaign_name2	FI	0.010003
2021-03-02	Campaign_name2	FI	0.1
2021-03-02	Campaign_name2	FK	0.010003
2021-03-02	Campaign_name2	FO	0.03
2021-03-02	Campaign_name2	FO	0.020006
2021-03-02	Campaign_name2	FO	0.02
2021-03-02	Campaign_name2	FR	0.64
2021-03-02	Campaign_name2	FR	0.440139
2021-03-02	Campaign_name2	FR	1.4
2021-03-02	Campaign_name2	GB	5.04
2021-03-02	Campaign_name2	GB	2.780877
2021-03-02	Campaign_name2	GB	5.15
2021-03-02	Campaign_name2	GG	0.05
2021-03-02	Campaign_name2	GG	0.010003
2021-03-02	Campaign_name2	GG	0.03
2021-03-02	Campaign_name2	GI	0.01
2021-03-02	Campaign_name2	GL	0.05
2021-03-02	Campaign_name2	GL	0.050016
2021-03-02	Campaign_name2	GL	0.03
2021-03-02	Campaign_name2	GP	0.01
2021-03-02	Campaign_name2	GP	0.01
2021-03-02	Campaign_name2	GR	0.06
2021-03-02	Campaign_name2	GR	0.040013
2021-03-02	Campaign_name2	GR	0.08
2021-03-02	Campaign_name2	GT	0.09
2021-03-02	Campaign_name2	GT	0.030009
2021-03-02	Campaign_name2	GT	0.14
2021-03-02	Campaign_name2	GU	0.070022
2021-03-02	Campaign_name2	GU	0.06
2021-03-02	Campaign_name2	HK	0.02
2021-03-02	Campaign_name2	HK	0.200063
2021-03-02	Campaign_name2	HN	0.020006
2021-03-02	Campaign_name2	HN	0.02
2021-03-02	Campaign_name2	HR	0.02
2021-03-02	Campaign_name2	HR	0.010003
2021-03-02	Campaign_name2	HU	0.21
2021-03-02	Campaign_name2	HU	0.060019
2021-03-02	Campaign_name2	HU	0.24
2021-03-02	Campaign_name2	IE	0.25
2021-03-02	Campaign_name2	IE	0.250079
2021-03-02	Campaign_name2	IE	0.14
2021-03-02	Campaign_name2	IL	0.43
2021-03-02	Campaign_name2	IL	0.230073
2021-03-02	Campaign_name2	IL	0.57
2021-03-02	Campaign_name2	IM	0.21
2021-03-02	Campaign_name2	IM	0.150047
2021-03-02	Campaign_name2	IM	0.11
2021-03-02	Campaign_name2	IS	0.03
2021-03-02	Campaign_name2	IS	0.060019
2021-03-02	Campaign_name2	IS	0.03
2021-03-02	Campaign_name2	IT	0.64
2021-03-02	Campaign_name2	IT	0.360114
2021-03-02	Campaign_name2	IT	0.37
2021-03-02	Campaign_name2	JE	0.01
2021-03-02	Campaign_name2	JE	0.010003
2021-03-02	Campaign_name2	JE	0.01
2021-03-02	Campaign_name2	JM	0.03
2021-03-02	Campaign_name2	JP	0.69
2021-03-02	Campaign_name2	JP	1.040328
2021-03-02	Campaign_name2	JP	1.23
2021-03-02	Campaign_name2	KR	0.12
2021-03-02	Campaign_name2	KR	0.490155
2021-03-02	Campaign_name2	KR	0.34
2021-03-02	Campaign_name2	KY	0.01
2021-03-02	Campaign_name2	KY	0.01
2021-03-02	Campaign_name2	LT	0.06
2021-03-02	Campaign_name2	LT	0.010003
2021-03-02	Campaign_name2	LT	0.01
2021-03-02	Campaign_name2	LU	0.26
2021-03-02	Campaign_name2	LU	0.010003
2021-03-02	Campaign_name2	LU	0.03
2021-03-02	Campaign_name2	LV	0.06
2021-03-02	Campaign_name2	MK	0.07
2021-03-02	Campaign_name2	MP	0.03
2021-03-02	Campaign_name2	MP	0.010003
2021-03-02	Campaign_name2	MP	0.01
2021-03-02	Campaign_name2	MQ	0.01
2021-03-02	Campaign_name2	MY	0.05
2021-03-02	Campaign_name2	MY	0.020006
2021-03-02	Campaign_name2	MY	0.06
2021-03-02	Campaign_name2	NC	0.020006
2021-03-02	Campaign_name2	NC	0.01
2021-03-02	Campaign_name2	NI	0.02
2021-03-02	Campaign_name2	NI	0.010003
2021-03-02	Campaign_name2	NI	0.01
2021-03-02	Campaign_name2	NL	0.18
2021-03-02	Campaign_name2	NL	0.16005
2021-03-02	Campaign_name2	NL	0.14
2021-03-02	Campaign_name2	NO	1.15
2021-03-02	Campaign_name2	NO	1.11035
2021-03-02	Campaign_name2	NO	1.56
2021-03-02	Campaign_name2	NZ	0.07
2021-03-02	Campaign_name2	NZ	0.16005
2021-03-02	Campaign_name2	NZ	0.24
2021-03-02	Campaign_name2	PA	0.02
2021-03-02	Campaign_name2	PE	0.02
2021-03-02	Campaign_name2	PE	0.010003
2021-03-02	Campaign_name2	PE	0.01
2021-03-02	Campaign_name2	PH	0.03
2021-03-02	Campaign_name2	PH	0.070022
2021-03-02	Campaign_name2	PH	0.11
2021-03-02	Campaign_name2	PL	0.07
2021-03-02	Campaign_name2	PL	0.080025
2021-03-02	Campaign_name2	PL	0.05
2021-03-02	Campaign_name2	PR	0.17
2021-03-02	Campaign_name2	PR	0.100032
2021-03-02	Campaign_name2	PR	0.06
2021-03-02	Campaign_name2	PT	0.11
2021-03-02	Campaign_name2	PT	0.050016
2021-03-02	Campaign_name2	PT	0.07
2021-03-02	Campaign_name2	PY	0.010003
2021-03-02	Campaign_name2	PY	0.01
2021-03-02	Campaign_name2	RO	0.12
2021-03-02	Campaign_name2	RO	0.050016
2021-03-02	Campaign_name2	RO	0.05
2021-03-02	Campaign_name2	RS	0.010003
2021-03-02	Campaign_name2	RU	0.12
2021-03-02	Campaign_name2	RU	0.050016
2021-03-02	Campaign_name2	RU	0.23
2021-03-02	Campaign_name2	SE	0.73
2021-03-02	Campaign_name2	SE	0.790249
2021-03-02	Campaign_name2	SE	0.75
2021-03-02	Campaign_name2	SG	0.05
2021-03-02	Campaign_name2	SG	0.080025
2021-03-02	Campaign_name2	SG	0.13
2021-03-02	Campaign_name2	SI	0.010003
2021-03-02	Campaign_name2	SK	0.09
2021-03-02	Campaign_name2	SK	0.060019
2021-03-02	Campaign_name2	SK	0.1
2021-03-02	Campaign_name2	SM	0.01
2021-03-02	Campaign_name2	SR	0.010003
2021-03-02	Campaign_name2	SV	0.05
2021-03-02	Campaign_name2	SV	0.010003
2021-03-02	Campaign_name2	TC	0.010003
2021-03-02	Campaign_name2	TT	0.02
2021-03-02	Campaign_name2	TW	0.15
2021-03-02	Campaign_name2	TW	0.390123
2021-03-02	Campaign_name2	TW	0.07
2021-03-02	Campaign_name2	UA	0.08
2021-03-02	Campaign_name2	UA	0.070022
2021-03-02	Campaign_name2	UA	0.04
2021-03-02	Campaign_name2	US	28.87
2021-03-02	Campaign_name2	US	18.155727
2021-03-02	Campaign_name2	US	43.05
2021-03-02	Campaign_name2	VE	0.01
2021-03-02	Campaign_name2	VE	0.020006
2021-03-02	Campaign_name2	VE	0.05
2021-03-02	Campaign_name2	VI	0.010003
